…
```
## Parsed with column specification:
## cols(
##   ObservationDate = col_date(format = ""),
##   Country = col_character(),
##   Confirmed = col_double(),
##   Deaths = col_double(),
##   Recovered = col_double()
## )
```

```
## # A tibble: 1,409 x 5
##    ObservationDate Country     Confirmed Deaths Recovered
##    <date>          <chr>           <dbl>  <dbl>     <dbl>
##  1 2020-01-27      Ivory Coast         1      0         0
##  2 2020-02-14      Egypt               1      0         0
##  3 2020-02-15      Egypt               1      0         0
##  4 2020-02-16      Egypt               1      0         0
##  5 2020-02-17      Egypt               1      0         0
##  6 2020-02-18      Egypt               1      0         0
##  7 2020-02-19      Egypt               1      0         0
##  8 2020-02-20      Egypt               1      0         0
##  9 2020-02-21      Egypt               1      0         0
## 10 2020-02-22      Egypt               1      0         0
## # ... with 1,399 more rows
```

Converting the classes of Confirmed, Deaths, and Recovered columns to class integer.

```r
(covid_africa <- covid_africa %>%
        
        mutate(Confirmed = as.integer(Confirmed), 
               Deaths = as.integer(Deaths),
               Recovered = as.integer(Recovered)))
```

```
## # A tibble: 1,409 x 5
##    ObservationDate Country     Confirmed Deaths Recovered
##    <date>          <chr>           <int>  <int>     <int>
##  1 2020-01-27      Ivory Coast         1      0         0
##  2 2020-02-14      Egypt               1      0         0
##  3 2020-02-15      Egypt               1      0         0
##  4 2020-02-16      Egypt               1      0         0
##  5 2020-02-17      Egypt               1      0         0
##  6 2020-02-18      Egypt               1      0         0
##  7 2020-02-19      Egypt               1      0         0
##  8 2020-02-20      Egypt               1      0         0
##  9 2020-02-21      Egypt               1      0         0
## 10 2020-02-22      Egypt               1      0         0
## # ... with 1,399 more rows
```
…
```
## [1] 52
```

Obtaining the most recent cases in each country. 
Note that the most recent cases on a given day == cumulative sum of cases reportd by end of the previous day. **WARNING: Adjust "today() - 1" accordingly.**

```r
(latest <- covid_africa %>%
        filter(ObservationDate == today() - 1 ))
```

```
## # A tibble: 51 x 5
##    ObservationDate Country                  Confirmed Deaths Recovered
##    <date>          <chr>                        <int>  <int>     <int>
##  1 2020-04-11      Algeria                       1825    275       460
##  2 2020-04-11      Angola                          19      2         4
##  3 2020-04-11      Benin                           35      1         5
##  4 2020-04-11      Botswana                        13      1         0
##  5 2020-04-11      Burkina Faso                   484     27       155
##  6 2020-04-11      Burundi                          5      0         0
##  7 2020-04-11      Cabo Verde                       8      1         1
##  8 2020-04-11      Cameroon                       820     12        98
##  9 2020-04-11      Central African Republic         8      0         0
## 10 2020-04-11      Chad                            11      0         2
## # ... with 41 more rows
```
…
